-------------------------------------------------------------------------------
Test set: unimib.processoesviluppo.bjeh.UnitTest
-------------------------------------------------------------------------------
Tests run: 1, Failures: 0, Errors: 0, Skipped: 0, Time elapsed: 2.806 sec
