-------------------------------------------------------------------------------
Test set: unimib.processoesviluppo.bjeh.UpdateTest
-------------------------------------------------------------------------------
Tests run: 10, Failures: 0, Errors: 0, Skipped: 0, Time elapsed: 2.809 sec
